 0 0 65793 65793 65793 0 0 0
 0 0 65793 65793 65793 65793 0 0
 0 0 65793 65793 0 0 0 0
 0 0 0 65793 65793 0 0 0
 0 0 65793 65793 0 65793 0 0
 0 0 0 65793 65793 65793 0 0
 0 0 65793 0 0 65793 65793 0
 0 65793 65793 0 0 0 0 0
 16777215 16777215 0 0 0 16777215 16777215 16777215
 16777215 16777215 0 0 0 0 16777215 16777215
 16777215 16777215 0 0 16777215 16777215 16777215 16777215
 16777215 16777215 16777215 0 0 16777215 16777215 16777215
 16777215 16777215 0 0 16777215 0 16777215 16777215
 16777215 16777215 16777215 0 0 0 16777215 16777215
 16777215 16777215 0 16777215 16777215 0 0 16777215
 16777215 0 0 16777215 16777215 16777215 16777215 16777215

